{
    "page": 1,
    "per_page": 15,
    "photos": [
        {
            "id": 1661950,
            "width": 5184,
            "height": 3006,
            "url": "https://www.pexels.com/photo/white-baseball-ball-on-brown-leather-baseball-mitt-1661950/",
            "photographer": "Steshka Willems",
            "photographer_url": "https://www.pexels.com/@steshkawillems",
            "photographer_id": 54039,
            "avg_color": "#929869",
            "src": {
                "original": "https://images.pexels.com/photos/1661950/pexels-photo-1661950.jpeg",
                "large2x": "https://images.pexels.com/photos/1661950/pexels-photo-1661950.jpeg?auto=compress&cs=tinysrgb&dpr=2&h=650&w=940",
                "large": "https://images.pexels.com/photos/1661950/pexels-photo-1661950.jpeg?auto=compress&cs=tinysrgb&h=650&w=940",
                "medium": "https://images.pexels.com/photos/1661950/pexels-photo-1661950.jpeg?auto=compress&cs=tinysrgb&h=350",
                "small": "https://images.pexels.com/photos/1661950/pexels-photo-1661950.jpeg?auto=compress&cs=tinysrgb&h=130",
                "portrait": "https://images.pexels.com/photos/1661950/pexels-photo-1661950.jpeg?auto=compress&cs=tinysrgb&fit=crop&h=1200&w=800",
                "landscape": "https://images.pexels.com/photos/1661950/pexels-photo-1661950.jpeg?auto=compress&cs=tinysrgb&fit=crop&h=627&w=1200",
                "tiny": "https://images.pexels.com/photos/1661950/pexels-photo-1661950.jpeg?auto=compress&cs=tinysrgb&dpr=1&fit=crop&h=200&w=280"
            },
            "liked": false,
            "alt": "White Baseball Ball On Brown Leather Baseball Mitt"
        },
        {
            "id": 1308713,
            "width": 5184,
            "height": 3456,
            "url": "https://www.pexels.com/photo/close-up-photography-of-four-baseballs-on-green-lawn-grasses-1308713/",
            "photographer": "Steshka Willems",
            "photographer_url": "https://www.pexels.com/@steshkawillems",
            "photographer_id": 54039,
            "avg_color": "#70654D",
            "src": {
                "original": "https://images.pexels.com/photos/1308713/pexels-photo-1308713.jpeg",
                "large2x": "https://images.pexels.com/photos/1308713/pexels-photo-1308713.jpeg?auto=compress&cs=tinysrgb&dpr=2&h=650&w=940",
                "large": "https://images.pexels.com/photos/1308713/pexels-photo-1308713.jpeg?auto=compress&cs=tinysrgb&h=650&w=940",
                "medium": "https://images.pexels.com/photos/1308713/pexels-photo-1308713.jpeg?auto=compress&cs=tinysrgb&h=350",
                "small": "https://images.pexels.com/photos/1308713/pexels-photo-1308713.jpeg?auto=compress&cs=tinysrgb&h=130",
                "portrait": "https://images.pexels.com/photos/1308713/pexels-photo-1308713.jpeg?auto=compress&cs=tinysrgb&fit=crop&h=1200&w=800",
                "landscape": "https://images.pexels.com/photos/1308713/pexels-photo-1308713.jpeg?auto=compress&cs=tinysrgb&fit=crop&h=627&w=1200",
                "tiny": "https://images.pexels.com/photos/1308713/pexels-photo-1308713.jpeg?auto=compress&cs=tinysrgb&dpr=1&fit=crop&h=200&w=280"
            },
            "liked": false,
            "alt": "Close Up Photography of Four Baseballs on Green Lawn Grasses"
        },
        {
            "id": 139762,
            "width": 2992,
            "height": 2000,
            "url": "https://www.pexels.com/photo/aerial-view-of-sports-stadium-during-daytime-139762/",
            "photographer": "Tim Gouw",
            "photographer_url": "https://www.pexels.com/@punttim",
            "photographer_id": 8202,
            "avg_color": "#4C553F",
            "src": {
                "original": "https://images.pexels.com/photos/139762/pexels-photo-139762.jpeg",
                "large2x": "https://images.pexels.com/photos/139762/pexels-photo-139762.jpeg?auto=compress&cs=tinysrgb&dpr=2&h=650&w=940",
                "large": "https://images.pexels.com/photos/139762/pexels-photo-139762.jpeg?auto=compress&cs=tinysrgb&h=650&w=940",
                "medium": "https://images.pexels.com/photos/139762/pexels-photo-139762.jpeg?auto=compress&cs=tinysrgb&h=350",
                "small": "https://images.pexels.com/photos/139762/pexels-photo-139762.jpeg?auto=compress&cs=tinysrgb&h=130",
                "portrait": "https://images.pexels.com/photos/139762/pexels-photo-139762.jpeg?auto=compress&cs=tinysrgb&fit=crop&h=1200&w=800",
                "landscape": "https://images.pexels.com/photos/139762/pexels-photo-139762.jpeg?auto=compress&cs=tinysrgb&fit=crop&h=627&w=1200",
                "tiny": "https://images.pexels.com/photos/139762/pexels-photo-139762.jpeg?auto=compress&cs=tinysrgb&dpr=1&fit=crop&h=200&w=280"
            },
            "liked": false,
            "alt": "Aerial View of Sports Stadium during Daytime"
        },
        {
            "id": 163487,
            "width": 3504,
            "height": 2336,
            "url": "https://www.pexels.com/photo/selective-focus-of-baseball-pitcher-in-20-jersey-about-to-throw-ball-163487/",
            "photographer": "Pixabay",
            "photographer_url": "https://www.pexels.com/@pixabay",
            "photographer_id": 2659,
            "avg_color": "#58554D",
            "src": {
                "original": "https://images.pexels.com/photos/163487/baseball-player-pitcher-ball-163487.jpeg",
                "large2x": "https://images.pexels.com/photos/163487/baseball-player-pitcher-ball-163487.jpeg?auto=compress&cs=tinysrgb&dpr=2&h=650&w=940",
                "large": "https://images.pexels.com/photos/163487/baseball-player-pitcher-ball-163487.jpeg?auto=compress&cs=tinysrgb&h=650&w=940",
                "medium": "https://images.pexels.com/photos/163487/baseball-player-pitcher-ball-163487.jpeg?auto=compress&cs=tinysrgb&h=350",
                "small": "https://images.pexels.com/photos/163487/baseball-player-pitcher-ball-163487.jpeg?auto=compress&cs=tinysrgb&h=130",
                "portrait": "https://images.pexels.com/photos/163487/baseball-player-pitcher-ball-163487.jpeg?auto=compress&cs=tinysrgb&fit=crop&h=1200&w=800",
                "landscape": "https://images.pexels.com/photos/163487/baseball-player-pitcher-ball-163487.jpeg?auto=compress&cs=tinysrgb&fit=crop&h=627&w=1200",
                "tiny": "https://images.pexels.com/photos/163487/baseball-player-pitcher-ball-163487.jpeg?auto=compress&cs=tinysrgb&dpr=1&fit=crop&h=200&w=280"
            },
            "liked": false,
            "alt": "Selective Focus of Baseball Pitcher in 20 Jersey About to Throw Ball"
        },
        {
            "id": 773063,
            "width": 5600,
            "height": 3738,
            "url": "https://www.pexels.com/photo/selective-focus-grayscale-photography-of-baseball-773063/",
            "photographer": "Rachel Xiao",
            "photographer_url": "https://www.pexels.com/@rachel-xiao-253850",
            "photographer_id": 253850,
            "avg_color": "#212121",
            "src": {
                "original": "https://images.pexels.com/photos/773063/pexels-photo-773063.jpeg",
                "large2x": "https://images.pexels.com/photos/773063/pexels-photo-773063.jpeg?auto=compress&cs=tinysrgb&dpr=2&h=650&w=940",
                "large": "https://images.pexels.com/photos/773063/pexels-photo-773063.jpeg?auto=compress&cs=tinysrgb&h=650&w=940",
                "medium": "https://images.pexels.com/photos/773063/pexels-photo-773063.jpeg?auto=compress&cs=tinysrgb&h=350",
                "small": "https://images.pexels.com/photos/773063/pexels-photo-773063.jpeg?auto=compress&cs=tinysrgb&h=130",
                "portrait": "https://images.pexels.com/photos/773063/pexels-photo-773063.jpeg?auto=compress&cs=tinysrgb&fit=crop&h=1200&w=800",
                "landscape": "https://images.pexels.com/photos/773063/pexels-photo-773063.jpeg?auto=compress&cs=tinysrgb&fit=crop&h=627&w=1200",
                "tiny": "https://images.pexels.com/photos/773063/pexels-photo-773063.jpeg?auto=compress&cs=tinysrgb&dpr=1&fit=crop&h=200&w=280"
            },
            "liked": false,
            "alt": "Selective Focus Grayscale Photography of Baseball"
        },
        {
            "id": 264279,
            "width": 6000,
            "height": 4000,
            "url": "https://www.pexels.com/photo/aerial-view-of-baseball-field-264279/",
            "photographer": "Pixabay",
            "photographer_url": "https://www.pexels.com/@pixabay",
            "photographer_id": 2659,
            "avg_color": "#7B7873",
            "src": {
                "original": "https://images.pexels.com/photos/264279/pexels-photo-264279.jpeg",
                "large2x": "https://images.pexels.com/photos/264279/pexels-photo-264279.jpeg?auto=compress&cs=tinysrgb&dpr=2&h=650&w=940",
                "large": "https://images.pexels.com/photos/264279/pexels-photo-264279.jpeg?auto=compress&cs=tinysrgb&h=650&w=940",
                "medium": "https://images.pexels.com/photos/264279/pexels-photo-264279.jpeg?auto=compress&cs=tinysrgb&h=350",
                "small": "https://images.pexels.com/photos/264279/pexels-photo-264279.jpeg?auto=compress&cs=tinysrgb&h=130",
                "portrait": "https://images.pexels.com/photos/264279/pexels-photo-264279.jpeg?auto=compress&cs=tinysrgb&fit=crop&h=1200&w=800",
                "landscape": "https://images.pexels.com/photos/264279/pexels-photo-264279.jpeg?auto=compress&cs=tinysrgb&fit=crop&h=627&w=1200",
                "tiny": "https://images.pexels.com/photos/264279/pexels-photo-264279.jpeg?auto=compress&cs=tinysrgb&dpr=1&fit=crop&h=200&w=280"
            },
            "liked": false,
            "alt": "Aerial View of Baseball Field"
        },
        {
            "id": 1374370,
            "width": 5514,
            "height": 3680,
            "url": "https://www.pexels.com/photo/man-holding-baseball-bat-1374370/",
            "photographer": "Tim Eiden",
            "photographer_url": "https://www.pexels.com/@phantomant",
            "photographer_id": 501654,
            "avg_color": "#927877",
            "src": {
                "original": "https://images.pexels.com/photos/1374370/pexels-photo-1374370.jpeg",
                "large2x": "https://images.pexels.com/photos/1374370/pexels-photo-1374370.jpeg?auto=compress&cs=tinysrgb&dpr=2&h=650&w=940",
                "large": "https://images.pexels.com/photos/1374370/pexels-photo-1374370.jpeg?auto=compress&cs=tinysrgb&h=650&w=940",
                "medium": "https://images.pexels.com/photos/1374370/pexels-photo-1374370.jpeg?auto=compress&cs=tinysrgb&h=350",
                "small": "https://images.pexels.com/photos/1374370/pexels-photo-1374370.jpeg?auto=compress&cs=tinysrgb&h=130",
                "portrait": "https://images.pexels.com/photos/1374370/pexels-photo-1374370.jpeg?auto=compress&cs=tinysrgb&fit=crop&h=1200&w=800",
                "landscape": "https://images.pexels.com/photos/1374370/pexels-photo-1374370.jpeg?auto=compress&cs=tinysrgb&fit=crop&h=627&w=1200",
                "tiny": "https://images.pexels.com/photos/1374370/pexels-photo-1374370.jpeg?auto=compress&cs=tinysrgb&dpr=1&fit=crop&h=200&w=280"
            },
            "liked": false,
            "alt": "Man Holding Baseball Bat"
        },
        {
            "id": 896567,
            "width": 3985,
            "height": 5000,
            "url": "https://www.pexels.com/photo/person-holding-baseball-bat-896567/",
            "photographer": "Mandie Inman",
            "photographer_url": "https://www.pexels.com/@mandie-inman-313888",
            "photographer_id": 313888,
            "avg_color": "#615D50",
            "src": {
                "original": "https://images.pexels.com/photos/896567/pexels-photo-896567.jpeg",
                "large2x": "https://images.pexels.com/photos/896567/pexels-photo-896567.jpeg?auto=compress&cs=tinysrgb&dpr=2&h=650&w=940",
                "large": "https://images.pexels.com/photos/896567/pexels-photo-896567.jpeg?auto=compress&cs=tinysrgb&h=650&w=940",
                "medium": "https://images.pexels.com/photos/896567/pexels-photo-896567.jpeg?auto=compress&cs=tinysrgb&h=350",
                "small": "https://images.pexels.com/photos/896567/pexels-photo-896567.jpeg?auto=compress&cs=tinysrgb&h=130",
                "portrait": "https://images.pexels.com/photos/896567/pexels-photo-896567.jpeg?auto=compress&cs=tinysrgb&fit=crop&h=1200&w=800",
                "landscape": "https://images.pexels.com/photos/896567/pexels-photo-896567.jpeg?auto=compress&cs=tinysrgb&fit=crop&h=627&w=1200",
                "tiny": "https://images.pexels.com/photos/896567/pexels-photo-896567.jpeg?auto=compress&cs=tinysrgb&dpr=1&fit=crop&h=200&w=280"
            },
            "liked": false,
            "alt": "Person Holding Baseball Bat"
        },
        {
            "id": 257970,
            "width": 5184,
            "height": 3456,
            "url": "https://www.pexels.com/photo/green-ball-on-sand-257970/",
            "photographer": "Pixabay",
            "photographer_url": "https://www.pexels.com/@pixabay",
            "photographer_id": 2659,
            "avg_color": "#B28C62",
            "src": {
                "original": "https://images.pexels.com/photos/257970/pexels-photo-257970.jpeg",
                "large2x": "https://images.pexels.com/photos/257970/pexels-photo-257970.jpeg?auto=compress&cs=tinysrgb&dpr=2&h=650&w=940",
                "large": "https://images.pexels.com/photos/257970/pexels-photo-257970.jpeg?auto=compress&cs=tinysrgb&h=650&w=940",
                "medium": "https://images.pexels.com/photos/257970/pexels-photo-257970.jpeg?auto=compress&cs=tinysrgb&h=350",
                "small": "https://images.pexels.com/photos/257970/pexels-photo-257970.jpeg?auto=compress&cs=tinysrgb&h=130",
                "portrait": "https://images.pexels.com/photos/257970/pexels-photo-257970.jpeg?auto=compress&cs=tinysrgb&fit=crop&h=1200&w=800",
                "landscape": "https://images.pexels.com/photos/257970/pexels-photo-257970.jpeg?auto=compress&cs=tinysrgb&fit=crop&h=627&w=1200",
                "tiny": "https://images.pexels.com/photos/257970/pexels-photo-257970.jpeg?auto=compress&cs=tinysrgb&dpr=1&fit=crop&h=200&w=280"
            },
            "liked": false,
            "alt": "Green Ball on Sand"
        },
        {
            "id": 159741,
            "width": 2100,
            "height": 1500,
            "url": "https://www.pexels.com/photo/two-man-playing-baseball-during-daytime-159741/",
            "photographer": "Pixabay",
            "photographer_url": "https://www.pexels.com/@pixabay",
            "photographer_id": 2659,
            "avg_color": "#898576",
            "src": {
                "original": "https://images.pexels.com/photos/159741/baseball-high-school-sport-competition-159741.jpeg",
                "large2x": "https://images.pexels.com/photos/159741/baseball-high-school-sport-competition-159741.jpeg?auto=compress&cs=tinysrgb&dpr=2&h=650&w=940",
                "large": "https://images.pexels.com/photos/159741/baseball-high-school-sport-competition-159741.jpeg?auto=compress&cs=tinysrgb&h=650&w=940",
                "medium": "https://images.pexels.com/photos/159741/baseball-high-school-sport-competition-159741.jpeg?auto=compress&cs=tinysrgb&h=350",
                "small": "https://images.pexels.com/photos/159741/baseball-high-school-sport-competition-159741.jpeg?auto=compress&cs=tinysrgb&h=130",
                "portrait": "https://images.pexels.com/photos/159741/baseball-high-school-sport-competition-159741.jpeg?auto=compress&cs=tinysrgb&fit=crop&h=1200&w=800",
                "landscape": "https://images.pexels.com/photos/159741/baseball-high-school-sport-competition-159741.jpeg?auto=compress&cs=tinysrgb&fit=crop&h=627&w=1200",
                "tiny": "https://images.pexels.com/photos/159741/baseball-high-school-sport-competition-159741.jpeg?auto=compress&cs=tinysrgb&dpr=1&fit=crop&h=200&w=280"
            },
            "liked": false,
            "alt": "Two Man Playing Baseball during Daytime"
        },
        {
            "id": 159550,
            "width": 1638,
            "height": 2293,
            "url": "https://www.pexels.com/photo/baseball-player-batting-photography-159550/",
            "photographer": "Pixabay",
            "photographer_url": "https://www.pexels.com/@pixabay",
            "photographer_id": 2659,
            "avg_color": "#544A50",
            "src": {
                "original": "https://images.pexels.com/photos/159550/baseball-foul-ball-hit-baseball-bat-159550.jpeg",
                "large2x": "https://images.pexels.com/photos/159550/baseball-foul-ball-hit-baseball-bat-159550.jpeg?auto=compress&cs=tinysrgb&dpr=2&h=650&w=940",
                "large": "https://images.pexels.com/photos/159550/baseball-foul-ball-hit-baseball-bat-159550.jpeg?auto=compress&cs=tinysrgb&h=650&w=940",
                "medium": "https://images.pexels.com/photos/159550/baseball-foul-ball-hit-baseball-bat-159550.jpeg?auto=compress&cs=tinysrgb&h=350",
                "small": "https://images.pexels.com/photos/159550/baseball-foul-ball-hit-baseball-bat-159550.jpeg?auto=compress&cs=tinysrgb&h=130",
                "portrait": "https://images.pexels.com/photos/159550/baseball-foul-ball-hit-baseball-bat-159550.jpeg?auto=compress&cs=tinysrgb&fit=crop&h=1200&w=800",
                "landscape": "https://images.pexels.com/photos/159550/baseball-foul-ball-hit-baseball-bat-159550.jpeg?auto=compress&cs=tinysrgb&fit=crop&h=627&w=1200",
                "tiny": "https://images.pexels.com/photos/159550/baseball-foul-ball-hit-baseball-bat-159550.jpeg?auto=compress&cs=tinysrgb&dpr=1&fit=crop&h=200&w=280"
            },
            "liked": false,
            "alt": "Baseball Player Batting Photography"
        },
        {
            "id": 269948,
            "width": 2201,
            "height": 1467,
            "url": "https://www.pexels.com/photo/baseball-player-playing-in-baseball-stadium-269948/",
            "photographer": "Pixabay",
            "photographer_url": "https://www.pexels.com/@pixabay",
            "photographer_id": 2659,
            "avg_color": "#232713",
            "src": {
                "original": "https://images.pexels.com/photos/269948/pexels-photo-269948.jpeg",
                "large2x": "https://images.pexels.com/photos/269948/pexels-photo-269948.jpeg?auto=compress&cs=tinysrgb&dpr=2&h=650&w=940",
                "large": "https://images.pexels.com/photos/269948/pexels-photo-269948.jpeg?auto=compress&cs=tinysrgb&h=650&w=940",
                "medium": "https://images.pexels.com/photos/269948/pexels-photo-269948.jpeg?auto=compress&cs=tinysrgb&h=350",
                "small": "https://images.pexels.com/photos/269948/pexels-photo-269948.jpeg?auto=compress&cs=tinysrgb&h=130",
                "portrait": "https://images.pexels.com/photos/269948/pexels-photo-269948.jpeg?auto=compress&cs=tinysrgb&fit=crop&h=1200&w=800",
                "landscape": "https://images.pexels.com/photos/269948/pexels-photo-269948.jpeg?auto=compress&cs=tinysrgb&fit=crop&h=627&w=1200",
                "tiny": "https://images.pexels.com/photos/269948/pexels-photo-269948.jpeg?auto=compress&cs=tinysrgb&dpr=1&fit=crop&h=200&w=280"
            },
            "liked": false,
            "alt": "Baseball Player Playing in Baseball Stadium"
        },
        {
            "id": 1757433,
            "width": 5914,
            "height": 3942,
            "url": "https://www.pexels.com/photo/aerial-photography-of-people-playing-baseball-1757433/",
            "photographer": "Timo Volz",
            "photographer_url": "https://www.pexels.com/@timo-volz-837240",
            "photographer_id": 837240,
            "avg_color": "#5D553F",
            "src": {
                "original": "https://images.pexels.com/photos/1757433/pexels-photo-1757433.jpeg",
                "large2x": "https://images.pexels.com/photos/1757433/pexels-photo-1757433.jpeg?auto=compress&cs=tinysrgb&dpr=2&h=650&w=940",
                "large": "https://images.pexels.com/photos/1757433/pexels-photo-1757433.jpeg?auto=compress&cs=tinysrgb&h=650&w=940",
                "medium": "https://images.pexels.com/photos/1757433/pexels-photo-1757433.jpeg?auto=compress&cs=tinysrgb&h=350",
                "small": "https://images.pexels.com/photos/1757433/pexels-photo-1757433.jpeg?auto=compress&cs=tinysrgb&h=130",
                "portrait": "https://images.pexels.com/photos/1757433/pexels-photo-1757433.jpeg?auto=compress&cs=tinysrgb&fit=crop&h=1200&w=800",
                "landscape": "https://images.pexels.com/photos/1757433/pexels-photo-1757433.jpeg?auto=compress&cs=tinysrgb&fit=crop&h=627&w=1200",
                "tiny": "https://images.pexels.com/photos/1757433/pexels-photo-1757433.jpeg?auto=compress&cs=tinysrgb&dpr=1&fit=crop&h=200&w=280"
            },
            "liked": false,
            "alt": "Aerial Photography of People Playing Baseball"
        },
        {
            "id": 209864,
            "width": 2700,
            "height": 1800,
            "url": "https://www.pexels.com/photo/baseball-player-running-on-court-209864/",
            "photographer": "Pixabay",
            "photographer_url": "https://www.pexels.com/@pixabay",
            "photographer_id": 2659,
            "avg_color": "#534C2D",
            "src": {
                "original": "https://images.pexels.com/photos/209864/pexels-photo-209864.jpeg",
                "large2x": "https://images.pexels.com/photos/209864/pexels-photo-209864.jpeg?auto=compress&cs=tinysrgb&dpr=2&h=650&w=940",
                "large": "https://images.pexels.com/photos/209864/pexels-photo-209864.jpeg?auto=compress&cs=tinysrgb&h=650&w=940",
                "medium": "https://images.pexels.com/photos/209864/pexels-photo-209864.jpeg?auto=compress&cs=tinysrgb&h=350",
                "small": "https://images.pexels.com/photos/209864/pexels-photo-209864.jpeg?auto=compress&cs=tinysrgb&h=130",
                "portrait": "https://images.pexels.com/photos/209864/pexels-photo-209864.jpeg?auto=compress&cs=tinysrgb&fit=crop&h=1200&w=800",
                "landscape": "https://images.pexels.com/photos/209864/pexels-photo-209864.jpeg?auto=compress&cs=tinysrgb&fit=crop&h=627&w=1200",
                "tiny": "https://images.pexels.com/photos/209864/pexels-photo-209864.jpeg?auto=compress&cs=tinysrgb&dpr=1&fit=crop&h=200&w=280"
            },
            "liked": false,
            "alt": "Baseball Player Running on Court"
        },
        {
            "id": 209975,
            "width": 3000,
            "height": 2400,
            "url": "https://www.pexels.com/photo/boy-wearing-blue-and-white-3-jersey-about-to-pitch-a-baseball-209975/",
            "photographer": "Pixabay",
            "photographer_url": "https://www.pexels.com/@pixabay",
            "photographer_id": 2659,
            "avg_color": "#979382",
            "src": {
                "original": "https://images.pexels.com/photos/209975/pexels-photo-209975.jpeg",
                "large2x": "https://images.pexels.com/photos/209975/pexels-photo-209975.jpeg?auto=compress&cs=tinysrgb&dpr=2&h=650&w=940",
                "large": "https://images.pexels.com/photos/209975/pexels-photo-209975.jpeg?auto=compress&cs=tinysrgb&h=650&w=940",
                "medium": "https://images.pexels.com/photos/209975/pexels-photo-209975.jpeg?auto=compress&cs=tinysrgb&h=350",
                "small": "https://images.pexels.com/photos/209975/pexels-photo-209975.jpeg?auto=compress&cs=tinysrgb&h=130",
                "portrait": "https://images.pexels.com/photos/209975/pexels-photo-209975.jpeg?auto=compress&cs=tinysrgb&fit=crop&h=1200&w=800",
                "landscape": "https://images.pexels.com/photos/209975/pexels-photo-209975.jpeg?auto=compress&cs=tinysrgb&fit=crop&h=627&w=1200",
                "tiny": "https://images.pexels.com/photos/209975/pexels-photo-209975.jpeg?auto=compress&cs=tinysrgb&dpr=1&fit=crop&h=200&w=280"
            },
            "liked": false,
            "alt": "Boy Wearing Blue and White 3 Jersey About to Pitch a Baseball"
        }
    ],
    "total_results": 1097,
    "next_page": "https://api.pexels.com/v1/search/?page=2&per_page=15&query=baseball"
}